[{
    "attributes": {
        "accountExpires": [
            "9999-12-31 23:59:59.999999+00:00"
        ],
        "adminCount": [
            1
        ],
        "badPasswordTime": [
            "1601-01-01 00:00:00+00:00"
        ],
        "badPwdCount": [
            0
        ],
        "cn": [
            "SQL Service"
        ],
        "codePage": [
            0
        ],
        "countryCode": [
            0
        ],
        "dSCorePropagationData": [
            "2022-12-12 04:50:56+00:00",
            "1601-01-01 00:00:00+00:00"
        ],
        "description": [
            "Password: Th1s1sMyP@$$w0rd!123#"
        ],
        "displayName": [
            "SQL Service"
        ],
        "distinguishedName": [
            "CN=SQL Service,CN=Users,DC=MARVEL,DC=local"
        ],
        "givenName": [
            "SQL"
        ],
        "instanceType": [
            4
        ],
        "lastLogoff": [
            "1601-01-01 00:00:00+00:00"
        ],
        "lastLogon": [
            "1601-01-01 00:00:00+00:00"
        ],
        "logonCount": [
            0
        ],
        "memberOf": [
            "CN=Group Policy Creator Owners,OU=Groups,DC=MARVEL,DC=local",
            "CN=Domain Admins,OU=Groups,DC=MARVEL,DC=local",
            "CN=Enterprise Admins,OU=Groups,DC=MARVEL,DC=local",
            "CN=Schema Admins,OU=Groups,DC=MARVEL,DC=local",
            "CN=Administrators,CN=Builtin,DC=MARVEL,DC=local"
        ],
        "name": [
            "SQL Service"
        ],
        "objectCategory": [
            "CN=Person,CN=Schema,CN=Configuration,DC=MARVEL,DC=local"
        ],
        "objectClass": [
            "top",
            "person",
            "organizationalPerson",
            "user"
        ],
        "objectGUID": [
            "{51dbba73-b3dd-4af8-9b40-1c15033766d7}"
        ],
        "objectSid": [
            "S-1-5-21-2777713389-3634874246-2568564847-1106"
        ],
        "primaryGroupID": [
            513
        ],
        "pwdLastSet": [
            "2022-12-12 03:55:44.084595+00:00"
        ],
        "sAMAccountName": [
            "SQLService"
        ],
        "sAMAccountType": [
            805306368
        ],
        "servicePrincipalName": [
            "HYDRA-DC/SQLService.MARVEL.local:60111"
        ],
        "sn": [
            "Service"
        ],
        "uSNChanged": [
            20500
        ],
        "uSNCreated": [
            16648
        ],
        "userAccountControl": [
            66048
        ],
        "userPrincipalName": [
            "SQLService@MARVEL.local"
        ],
        "whenChanged": [
            "2022-12-12 04:50:56+00:00"
        ],
        "whenCreated": [
            "2022-12-12 03:55:44+00:00"
        ]
    },
    "dn": "CN=SQL Service,CN=Users,DC=MARVEL,DC=local"
},{
    "attributes": {
        "accountExpires": [
            "9999-12-31 23:59:59.999999+00:00"
        ],
        "badPasswordTime": [
            "2022-12-13 00:14:11.544903+00:00"
        ],
        "badPwdCount": [
            1
        ],
        "cn": [
            "Steven Rogers"
        ],
        "codePage": [
            0
        ],
        "countryCode": [
            0
        ],
        "dSCorePropagationData": [
            "1601-01-01 00:00:00+00:00"
        ],
        "displayName": [
            "Steven Rogers"
        ],
        "distinguishedName": [
            "CN=Steven Rogers,CN=Users,DC=MARVEL,DC=local"
        ],
        "givenName": [
            "Steven"
        ],
        "instanceType": [
            4
        ],
        "lastLogoff": [
            "1601-01-01 00:00:00+00:00"
        ],
        "lastLogon": [
            "1601-01-01 00:00:00+00:00"
        ],
        "logonCount": [
            0
        ],
        "name": [
            "Steven Rogers"
        ],
        "objectCategory": [
            "CN=Person,CN=Schema,CN=Configuration,DC=MARVEL,DC=local"
        ],
        "objectClass": [
            "top",
            "person",
            "organizationalPerson",
            "user"
        ],
        "objectGUID": [
            "{bfe94e93-abcc-40ad-bcbc-c0142852ec9a}"
        ],
        "objectSid": [
            "S-1-5-21-2777713389-3634874246-2568564847-1105"
        ],
        "primaryGroupID": [
            513
        ],
        "pwdLastSet": [
            "2022-12-12 03:48:08.599781+00:00"
        ],
        "sAMAccountName": [
            "srogers"
        ],
        "sAMAccountType": [
            805306368
        ],
        "sn": [
            "Rogers"
        ],
        "uSNChanged": [
            16644
        ],
        "uSNCreated": [
            16639
        ],
        "userAccountControl": [
            66048
        ],
        "userPrincipalName": [
            "srogers@MARVEL.local"
        ],
        "whenChanged": [
            "2022-12-12 03:48:08+00:00"
        ],
        "whenCreated": [
            "2022-12-12 03:48:08+00:00"
        ]
    },
    "dn": "CN=Steven Rogers,CN=Users,DC=MARVEL,DC=local"
},{
    "attributes": {
        "accountExpires": [
            "9999-12-31 23:59:59.999999+00:00"
        ],
        "adminCount": [
            1
        ],
        "badPasswordTime": [
            "1601-01-01 00:00:00+00:00"
        ],
        "badPwdCount": [
            0
        ],
        "cn": [
            "Cortana Ai"
        ],
        "codePage": [
            0
        ],
        "countryCode": [
            0
        ],
        "dSCorePropagationData": [
            "2022-12-12 04:50:56+00:00",
            "1601-01-01 00:00:00+00:00"
        ],
        "displayName": [
            "Cortana Ai"
        ],
        "distinguishedName": [
            "CN=Cortana Ai,CN=Users,DC=MARVEL,DC=local"
        ],
        "givenName": [
            "Cortana"
        ],
        "instanceType": [
            4
        ],
        "lastLogoff": [
            "1601-01-01 00:00:00+00:00"
        ],
        "lastLogon": [
            "1601-01-01 00:00:00+00:00"
        ],
        "logonCount": [
            0
        ],
        "memberOf": [
            "CN=Group Policy Creator Owners,OU=Groups,DC=MARVEL,DC=local",
            "CN=Domain Admins,OU=Groups,DC=MARVEL,DC=local",
            "CN=Enterprise Admins,OU=Groups,DC=MARVEL,DC=local",
            "CN=Schema Admins,OU=Groups,DC=MARVEL,DC=local",
            "CN=Administrators,CN=Builtin,DC=MARVEL,DC=local"
        ],
        "name": [
            "Cortana Ai"
        ],
        "objectCategory": [
            "CN=Person,CN=Schema,CN=Configuration,DC=MARVEL,DC=local"
        ],
        "objectClass": [
            "top",
            "person",
            "organizationalPerson",
            "user"
        ],
        "objectGUID": [
            "{cc1099d6-ddbe-4a4f-85ac-212eb18d475e}"
        ],
        "objectSid": [
            "S-1-5-21-2777713389-3634874246-2568564847-1104"
        ],
        "primaryGroupID": [
            513
        ],
        "pwdLastSet": [
            "2022-12-12 03:46:56.837105+00:00"
        ],
        "sAMAccountName": [
            "cai"
        ],
        "sAMAccountType": [
            805306368
        ],
        "sn": [
            "Ai"
        ],
        "uSNChanged": [
            20501
        ],
        "uSNCreated": [
            16617
        ],
        "userAccountControl": [
            66048
        ],
        "userPrincipalName": [
            "cai@MARVEL.local"
        ],
        "whenChanged": [
            "2022-12-12 04:50:56+00:00"
        ],
        "whenCreated": [
            "2022-12-12 03:46:56+00:00"
        ]
    },
    "dn": "CN=Cortana Ai,CN=Users,DC=MARVEL,DC=local"
},{
    "attributes": {
        "accountExpires": [
            "9999-12-31 23:59:59.999999+00:00"
        ],
        "badPasswordTime": [
            "1601-01-01 00:00:00+00:00"
        ],
        "badPwdCount": [
            0
        ],
        "cn": [
            "Anthony Stark"
        ],
        "codePage": [
            0
        ],
        "countryCode": [
            0
        ],
        "dSCorePropagationData": [
            "1601-01-01 00:00:00+00:00"
        ],
        "displayName": [
            "Anthony Stark"
        ],
        "distinguishedName": [
            "CN=Anthony Stark,CN=Users,DC=MARVEL,DC=local"
        ],
        "givenName": [
            "Anthony"
        ],
        "instanceType": [
            4
        ],
        "lastLogoff": [
            "1601-01-01 00:00:00+00:00"
        ],
        "lastLogon": [
            "2022-12-14 10:01:24.547834+00:00"
        ],
        "lastLogonTimestamp": [
            "2022-12-12 04:55:45.454844+00:00"
        ],
        "logonCount": [
            17
        ],
        "name": [
            "Anthony Stark"
        ],
        "objectCategory": [
            "CN=Person,CN=Schema,CN=Configuration,DC=MARVEL,DC=local"
        ],
        "objectClass": [
            "top",
            "person",
            "organizationalPerson",
            "user"
        ],
        "objectGUID": [
            "{aff26b24-ef4f-45f2-8ab6-33ef3df22c4e}"
        ],
        "objectSid": [
            "S-1-5-21-2777713389-3634874246-2568564847-1103"
        ],
        "primaryGroupID": [
            513
        ],
        "pwdLastSet": [
            "2022-12-12 03:42:55.259344+00:00"
        ],
        "sAMAccountName": [
            "astark"
        ],
        "sAMAccountType": [
            805306368
        ],
        "sn": [
            "Stark"
        ],
        "uSNChanged": [
            20524
        ],
        "uSNCreated": [
            16609
        ],
        "userAccountControl": [
            66048
        ],
        "userPrincipalName": [
            "astark@MARVEL.local"
        ],
        "whenChanged": [
            "2022-12-12 04:55:45+00:00"
        ],
        "whenCreated": [
            "2022-12-12 03:42:55+00:00"
        ]
    },
    "dn": "CN=Anthony Stark,CN=Users,DC=MARVEL,DC=local"
},{
    "attributes": {
        "accountExpires": [
            "9999-12-31 23:59:59.999999+00:00"
        ],
        "adminCount": [
            1
        ],
        "badPasswordTime": [
            "1601-01-01 00:00:00+00:00"
        ],
        "badPwdCount": [
            0
        ],
        "cn": [
            "krbtgt"
        ],
        "codePage": [
            0
        ],
        "countryCode": [
            0
        ],
        "dSCorePropagationData": [
            "2022-12-12 02:44:00+00:00",
            "2022-12-12 01:09:49+00:00",
            "1601-01-01 00:04:16+00:00"
        ],
        "description": [
            "Key Distribution Center Service Account"
        ],
        "distinguishedName": [
            "CN=krbtgt,CN=Users,DC=MARVEL,DC=local"
        ],
        "instanceType": [
            4
        ],
        "isCriticalSystemObject": [
            true
        ],
        "lastLogoff": [
            "1601-01-01 00:00:00+00:00"
        ],
        "lastLogon": [
            "1601-01-01 00:00:00+00:00"
        ],
        "logonCount": [
            0
        ],
        "memberOf": [
            "CN=Denied RODC Password Replication Group,OU=Groups,DC=MARVEL,DC=local"
        ],
        "msDS-SupportedEncryptionTypes": [
            0
        ],
        "name": [
            "krbtgt"
        ],
        "objectCategory": [
            "CN=Person,CN=Schema,CN=Configuration,DC=MARVEL,DC=local"
        ],
        "objectClass": [
            "top",
            "person",
            "organizationalPerson",
            "user"
        ],
        "objectGUID": [
            "{7a536043-4316-4896-934b-ca20900b6b69}"
        ],
        "objectSid": [
            "S-1-5-21-2777713389-3634874246-2568564847-502"
        ],
        "primaryGroupID": [
            513
        ],
        "pwdLastSet": [
            "2022-12-12 01:09:48.786772+00:00"
        ],
        "sAMAccountName": [
            "krbtgt"
        ],
        "sAMAccountType": [
            805306368
        ],
        "servicePrincipalName": [
            "kadmin/changepw"
        ],
        "showInAdvancedViewOnly": [
            true
        ],
        "uSNChanged": [
            16565
        ],
        "uSNCreated": [
            12324
        ],
        "userAccountControl": [
            514
        ],
        "whenChanged": [
            "2022-12-12 02:44:00+00:00"
        ],
        "whenCreated": [
            "2022-12-12 01:09:48+00:00"
        ]
    },
    "dn": "CN=krbtgt,CN=Users,DC=MARVEL,DC=local"
},{
    "attributes": {
        "accountExpires": [
            "9999-12-31 23:59:59.999999+00:00"
        ],
        "badPasswordTime": [
            "1601-01-01 00:00:00+00:00"
        ],
        "badPwdCount": [
            0
        ],
        "cn": [
            "Guest"
        ],
        "codePage": [
            0
        ],
        "countryCode": [
            0
        ],
        "dSCorePropagationData": [
            "2022-12-12 01:09:49+00:00",
            "1601-01-01 00:00:01+00:00"
        ],
        "description": [
            "Built-in account for guest access to the computer/domain"
        ],
        "distinguishedName": [
            "CN=Guest,CN=Users,DC=MARVEL,DC=local"
        ],
        "instanceType": [
            4
        ],
        "isCriticalSystemObject": [
            true
        ],
        "lastLogoff": [
            "1601-01-01 00:00:00+00:00"
        ],
        "lastLogon": [
            "1601-01-01 00:00:00+00:00"
        ],
        "logonCount": [
            0
        ],
        "memberOf": [
            "CN=Guests,CN=Builtin,DC=MARVEL,DC=local"
        ],
        "name": [
            "Guest"
        ],
        "objectCategory": [
            "CN=Person,CN=Schema,CN=Configuration,DC=MARVEL,DC=local"
        ],
        "objectClass": [
            "top",
            "person",
            "organizationalPerson",
            "user"
        ],
        "objectGUID": [
            "{5fa8c9b6-da70-4d3d-9247-c2922245f0ed}"
        ],
        "objectSid": [
            "S-1-5-21-2777713389-3634874246-2568564847-501"
        ],
        "primaryGroupID": [
            514
        ],
        "pwdLastSet": [
            "1601-01-01 00:00:00+00:00"
        ],
        "sAMAccountName": [
            "Guest"
        ],
        "sAMAccountType": [
            805306368
        ],
        "uSNChanged": [
            8197
        ],
        "uSNCreated": [
            8197
        ],
        "userAccountControl": [
            66082
        ],
        "whenChanged": [
            "2022-12-12 01:09:08+00:00"
        ],
        "whenCreated": [
            "2022-12-12 01:09:08+00:00"
        ]
    },
    "dn": "CN=Guest,CN=Users,DC=MARVEL,DC=local"
},{
    "attributes": {
        "accountExpires": [
            "9999-12-31 23:59:59.999999+00:00"
        ],
        "adminCount": [
            1
        ],
        "badPasswordTime": [
            "1601-01-01 00:00:00+00:00"
        ],
        "badPwdCount": [
            0
        ],
        "cn": [
            "Administrator"
        ],
        "codePage": [
            0
        ],
        "countryCode": [
            0
        ],
        "dSCorePropagationData": [
            "2022-12-12 02:44:00+00:00",
            "2022-12-12 02:44:00+00:00",
            "2022-12-12 01:09:49+00:00",
            "1601-01-01 18:12:16+00:00"
        ],
        "description": [
            "Built-in account for administering the computer/domain"
        ],
        "distinguishedName": [
            "CN=Administrator,CN=Users,DC=MARVEL,DC=local"
        ],
        "instanceType": [
            4
        ],
        "isCriticalSystemObject": [
            true
        ],
        "lastLogoff": [
            "1601-01-01 00:00:00+00:00"
        ],
        "lastLogon": [
            "2022-12-17 00:04:22.900066+00:00"
        ],
        "lastLogonTimestamp": [
            "2022-12-12 01:15:39.911486+00:00"
        ],
        "logonCount": [
            36
        ],
        "memberOf": [
            "CN=Group Policy Creator Owners,OU=Groups,DC=MARVEL,DC=local",
            "CN=Domain Admins,OU=Groups,DC=MARVEL,DC=local",
            "CN=Enterprise Admins,OU=Groups,DC=MARVEL,DC=local",
            "CN=Schema Admins,OU=Groups,DC=MARVEL,DC=local",
            "CN=Administrators,CN=Builtin,DC=MARVEL,DC=local"
        ],
        "name": [
            "Administrator"
        ],
        "objectCategory": [
            "CN=Person,CN=Schema,CN=Configuration,DC=MARVEL,DC=local"
        ],
        "objectClass": [
            "top",
            "person",
            "organizationalPerson",
            "user"
        ],
        "objectGUID": [
            "{1ef305f7-b14d-4b6b-acc9-d1345f05f990}"
        ],
        "objectSid": [
            "S-1-5-21-2777713389-3634874246-2568564847-500"
        ],
        "primaryGroupID": [
            513
        ],
        "pwdLastSet": [
            "2022-12-12 00:40:07.746370+00:00"
        ],
        "sAMAccountName": [
            "Administrator"
        ],
        "sAMAccountType": [
            805306368
        ],
        "uSNChanged": [
            16554
        ],
        "uSNCreated": [
            8196
        ],
        "userAccountControl": [
            66048
        ],
        "whenChanged": [
            "2022-12-12 02:44:00+00:00"
        ],
        "whenCreated": [
            "2022-12-12 01:09:08+00:00"
        ]
    },
    "dn": "CN=Administrator,CN=Users,DC=MARVEL,DC=local"
}]